{
  "power_sets": {
    "Fitness": "Inherent.Fitness",
    "Primary": "Controller_Control.Mind_Control",
    "Secondary": "Controller_Buff.Force_Field",
    "Pool1": "Pool.Speed",
    "Pool2": "Pool.Invisibility",
    "Pool3": "Pool.Fighting",
    "Pool4": "Pool.Force_of_Will",
    "Epic": "Epic.Primal_Forces_Mastery_Dominator"
  },
  "power_entries": {
    "Brawl": {
      "level": 1,
      "power_id": "Inherent.Inherent.Brawl",
      "tag": false,
      "stat_include": false,
      "variable_value": 0,
      "slots": [
        {
          "enhancement_id": "Crafted_Accuracy",
          "enhancement_level": 49,
          "grade": "None",
          "level": 1,
          "relative_level": "Even"
        }
      ],
      "sub_powers": []
    },
    "Health": {
      "level": 1,
      "power_id": "Inherent.Fitness.Health",
      "tag": false,
      "stat_include": true,
      "variable_value": 0,
      "slots": [
        {
          "enhancement_id": "Crafted_Heal",
          "enhancement_level": 49,
          "grade": "None",
          "level": 1,
          "relative_level": "Even"
        },
        {
          "enhancement_id": "Crafted_Heal",
          "enhancement_level": 49,
          "grade": "None",
          "level": 12,
          "relative_level": "Even"
        },
        {
          "enhancement_id": "Crafted_Heal",
          "enhancement_level": 49,
          "grade": "None",
          "level": 12,
          "relative_level": "Even"
        }
      ],
      "sub_powers": []
    },
    "Stamina": {
      "level": 1,
      "power_id": "Inherent.Fitness.Stamina",
      "tag": false,
      "stat_include": true,
      "variable_value": 0,
      "slots": [
        {
          "enhancement_id": "Crafted_Recovery",
          "enhancement_level": 49,
          "grade": "None",
          "level": 1,
          "relative_level": "Even"
        },
        {
          "enhancement_id": "Crafted_Recovery",
          "enhancement_level": 49,
          "grade": "None",
          "level": 14,
          "relative_level": "Even"
        },
        {
          "enhancement_id": "Crafted_Recovery",
          "enhancement_level": 49,
          "grade": "None",
          "level": 14,
          "relative_level": "Even"
        }
      ],
      "sub_powers": []
    },
    "Level1Primary": {
      "level": 1,
      "power_id": "Controller_Control.Mind_Control.Mesmerize",
      "tag": false,
      "stat_include": false,
      "variable_value": 0,
      "slots": [
        {
          "enhancement_id": "Crafted_Accuracy",
          "enhancement_level": 49,
          "grade": "None",
          "level": 1,
          "relative_level": "Even"
        },
        {
          "enhancement_id": "Crafted_Damage",
          "enhancement_level": 49,
          "grade": "None",
          "level": 2,
          "relative_level": "Even"
        },
        {
          "enhancement_id": "Crafted_Damage",
          "enhancement_level": 49,
          "grade": "None",
          "level": 2,
          "relative_level": "Even"
        },
        {
          "enhancement_id": "Crafted_Damage",
          "enhancement_level": 49,
          "grade": "None",
          "level": 4,
          "relative_level": "Even"
        },
        {
          "enhancement_id": "Crafted_Sleep",
          "enhancement_level": 49,
          "grade": "None",
          "level": 4,
          "relative_level": "Even"
        },
        {
          "enhancement_id": "Crafted_Sleep",
          "enhancement_level": 49,
          "grade": "None",
          "level": 6,
          "relative_level": "Even"
        }
      ],
      "sub_powers": []
    },
    "Level1Secondary": {
      "level": 1,
      "power_id": "Controller_Buff.Force_Field.Personal_Force_Field",
      "tag": false,
      "stat_include": false,
      "variable_value": 0,
      "slots": [
        {
          "enhancement_id": "Crafted_Defense_Buff",
          "enhancement_level": 49,
          "grade": "None",
          "level": 1,
          "relative_level": "Even"
        },
        {
          "enhancement_id": "Crafted_Defense_Buff",
          "enhancement_level": 49,
          "grade": "None",
          "level": 6,
          "relative_level": "Even"
        },
        {
          "enhancement_id": "Crafted_Defense_Buff",
          "enhancement_level": 49,
          "grade": "None",
          "level": 8,
          "relative_level": "Even"
        },
        {
          "enhancement_id": "Crafted_Recharge",
          "enhancement_level": 49,
          "grade": "None",
          "level": 8,
          "relative_level": "Even"
        },
        {
          "enhancement_id": "Crafted_Recharge",
          "enhancement_level": 49,
          "grade": "None",
          "level": 10,
          "relative_level": "Even"
        },
        {
          "enhancement_id": "Crafted_Recharge",
          "enhancement_level": 49,
          "grade": "None",
          "level": 10,
          "relative_level": "Even"
        }
      ],
      "sub_powers": []
    },
    "Level2": {
      "level": 2,
      "power_id": "Controller_Buff.Force_Field.Deflection_Shield",
      "tag": false,
      "stat_include": false,
      "variable_value": 0,
      "slots": [
        {
          "enhancement_id": "Crafted_Defense_Buff",
          "enhancement_level": 49,
          "grade": "None",
          "level": 1,
          "relative_level": "Even"
        },
        {
          "enhancement_id": "Crafted_Defense_Buff",
          "enhancement_level": 49,
          "grade": "None",
          "level": 16,
          "relative_level": "Even"
        },
        {
          "enhancement_id": "Crafted_Defense_Buff",
          "enhancement_level": 49,
          "grade": "None",
          "level": 16,
          "relative_level": "Even"
        },
        {
          "enhancement_id": "Crafted_Endurance_Discount",
          "enhancement_level": 49,
          "grade": "None",
          "level": 18,
          "relative_level": "Even"
        },
        {
          "enhancement_id": "Crafted_Endurance_Discount",
          "enhancement_level": 49,
          "grade": "None",
          "level": 18,
          "relative_level": "Even"
        },
        {
          "enhancement_id": "Crafted_Endurance_Discount",
          "enhancement_level": 49,
          "grade": "None",
          "level": 20,
          "relative_level": "Even"
        }
      ],
      "sub_powers": []
    },
    "Level4": {
      "level": 4,
      "power_id": "Controller_Control.Mind_Control.Levitate",
      "tag": false,
      "stat_include": false,
      "variable_value": 0,
      "slots": [
        {
          "enhancement_id": "Crafted_Accuracy",
          "enhancement_level": 49,
          "grade": "None",
          "level": 3,
          "relative_level": "Even"
        },
        {
          "enhancement_id": "Crafted_Damage",
          "enhancement_level": 49,
          "grade": "None",
          "level": 20,
          "relative_level": "Even"
        },
        {
          "enhancement_id": "Crafted_Damage",
          "enhancement_level": 49,
          "grade": "None",
          "level": 22,
          "relative_level": "Even"
        },
        {
          "enhancement_id": "Crafted_Damage",
          "enhancement_level": 49,
          "grade": "None",
          "level": 22,
          "relative_level": "Even"
        },
        {
          "enhancement_id": "Crafted_Endurance_Discount",
          "enhancement_level": 49,
          "grade": "None",
          "level": 24,
          "relative_level": "Even"
        },
        {
          "enhancement_id": "Crafted_Endurance_Discount",
          "enhancement_level": 49,
          "grade": "None",
          "level": 24,
          "relative_level": "Even"
        }
      ],
      "sub_powers": []
    },
    "Level6": {
      "level": 6,
      "power_id": "Controller_Control.Mind_Control.Dominate",
      "tag": false,
      "stat_include": false,
      "variable_value": 0,
      "slots": [
        {
          "enhancement_id": "Crafted_Accuracy",
          "enhancement_level": 49,
          "grade": "None",
          "level": 5,
          "relative_level": "Even"
        },
        {
          "enhancement_id": "Crafted_Damage",
          "enhancement_level": 49,
          "grade": "None",
          "level": 26,
          "relative_level": "Even"
        },
        {
          "enhancement_id": "Crafted_Damage",
          "enhancement_level": 49,
          "grade": "None",
          "level": 26,
          "relative_level": "Even"
        },
        {
          "enhancement_id": "Crafted_Damage",
          "enhancement_level": 49,
          "grade": "None",
          "level": 28,
          "relative_level": "Even"
        },
        {
          "enhancement_id": "Crafted_Hold",
          "enhancement_level": 49,
          "grade": "None",
          "level": 28,
          "relative_level": "Even"
        },
        {
          "enhancement_id": "Crafted_Hold",
          "enhancement_level": 49,
          "grade": "None",
          "level": 30,
          "relative_level": "Even"
        }
      ],
      "sub_powers": []
    },
    "Level8": {
      "level": 8,
      "power_id": "Controller_Control.Mind_Control.Confuse",
      "tag": false,
      "stat_include": false,
      "variable_value": 0,
      "slots": [
        {
          "enhancement_id": "Crafted_Accuracy",
          "enhancement_level": 49,
          "grade": "None",
          "level": 7,
          "relative_level": "Even"
        },
        {
          "enhancement_id": "Crafted_Confuse",
          "enhancement_level": 49,
          "grade": "None",
          "level": 30,
          "relative_level": "Even"
        },
        {
          "enhancement_id": "Crafted_Confuse",
          "enhancement_level": 49,
          "grade": "None",
          "level": 30,
          "relative_level": "Even"
        },
        {
          "enhancement_id": "Crafted_Confuse",
          "enhancement_level": 49,
          "grade": "None",
          "level": 32,
          "relative_level": "Even"
        },
        {
          "enhancement_id": "Crafted_Endurance_Discount",
          "enhancement_level": 49,
          "grade": "None",
          "level": 32,
          "relative_level": "Even"
        },
        {
          "enhancement_id": "Crafted_Endurance_Discount",
          "enhancement_level": 49,
          "grade": "None",
          "level": 32,
          "relative_level": "Even"
        }
      ],
      "sub_powers": []
    },
    "Level10": {
      "level": 10,
      "power_id": "Pool.Invisibility.Stealth",
      "tag": false,
      "stat_include": false,
      "variable_value": 0,
      "slots": [
        {
          "enhancement_id": "Crafted_Defense_Buff",
          "enhancement_level": 49,
          "grade": "None",
          "level": 9,
          "relative_level": "Even"
        },
        {
          "enhancement_id": "Crafted_Defense_Buff",
          "enhancement_level": 49,
          "grade": "None",
          "level": 33,
          "relative_level": "Even"
        },
        {
          "enhancement_id": "Crafted_Defense_Buff",
          "enhancement_level": 49,
          "grade": "None",
          "level": 33,
          "relative_level": "Even"
        },
        {
          "enhancement_id": "Crafted_Recharge",
          "enhancement_level": 49,
          "grade": "None",
          "level": 33,
          "relative_level": "Even"
        },
        {
          "enhancement_id": "Crafted_Recharge",
          "enhancement_level": 49,
          "grade": "None",
          "level": 35,
          "relative_level": "Even"
        },
        {
          "enhancement_id": "Crafted_Recharge",
          "enhancement_level": 49,
          "grade": "None",
          "level": 35,
          "relative_level": "Even"
        }
      ],
      "sub_powers": []
    },
    "Level12": {
      "level": 12,
      "power_id": "Pool.Invisibility.Grant_Invisibility",
      "tag": false,
      "stat_include": false,
      "variable_value": 0,
      "slots": [
        {
          "enhancement_id": "Crafted_Defense_Buff",
          "enhancement_level": 49,
          "grade": "None",
          "level": 11,
          "relative_level": "Even"
        },
        {
          "enhancement_id": "Crafted_Defense_Buff",
          "enhancement_level": 49,
          "grade": "None",
          "level": 35,
          "relative_level": "Even"
        },
        {
          "enhancement_id": "Crafted_Defense_Buff",
          "enhancement_level": 49,
          "grade": "None",
          "level": 36,
          "relative_level": "Even"
        },
        {
          "enhancement_id": "Crafted_Endurance_Discount",
          "enhancement_level": 49,
          "grade": "None",
          "level": 36,
          "relative_level": "Even"
        },
        {
          "enhancement_id": "Crafted_Endurance_Discount",
          "enhancement_level": 49,
          "grade": "None",
          "level": 36,
          "relative_level": "Even"
        },
        {
          "enhancement_id": "Crafted_Endurance_Discount",
          "enhancement_level": 49,
          "grade": "None",
          "level": 38,
          "relative_level": "Even"
        }
      ],
      "sub_powers": []
    },
    "Level14": {
      "level": 14,
      "power_id": "Controller_Buff.Force_Field.Insulation_Shield",
      "tag": false,
      "stat_include": false,
      "variable_value": 0,
      "slots": [
        {
          "enhancement_id": "Crafted_Defense_Buff",
          "enhancement_level": 49,
          "grade": "None",
          "level": 13,
          "relative_level": "Even"
        },
        {
          "enhancement_id": "Crafted_Defense_Buff",
          "enhancement_level": 49,
          "grade": "None",
          "level": 38,
          "relative_level": "Even"
        },
        {
          "enhancement_id": "Crafted_Defense_Buff",
          "enhancement_level": 49,
          "grade": "None",
          "level": 38,
          "relative_level": "Even"
        },
        {
          "enhancement_id": "Crafted_Endurance_Discount",
          "enhancement_level": 49,
          "grade": "None",
          "level": 39,
          "relative_level": "Even"
        },
        {
          "enhancement_id": "Crafted_Endurance_Discount",
          "enhancement_level": 49,
          "grade": "None",
          "level": 39,
          "relative_level": "Even"
        },
        {
          "enhancement_id": "Crafted_Endurance_Discount",
          "enhancement_level": 49,
          "grade": "None",
          "level": 39,
          "relative_level": "Even"
        }
      ],
      "sub_powers": []
    },
    "Level16": {
      "level": 16,
      "power_id": "Pool.Invisibility.Invisibility",
      "tag": false,
      "stat_include": false,
      "variable_value": 0,
      "slots": [
        {
          "enhancement_id": "Crafted_Defense_Buff",
          "enhancement_level": 49,
          "grade": "None",
          "level": 15,
          "relative_level": "Even"
        },
        {
          "enhancement_id": "Crafted_Defense_Buff",
          "enhancement_level": 49,
          "grade": "None",
          "level": 41,
          "relative_level": "Even"
        },
        {
          "enhancement_id": "Crafted_Defense_Buff",
          "enhancement_level": 49,
          "grade": "None",
          "level": 41,
          "relative_level": "Even"
        },
        {
          "enhancement_id": "Crafted_Recharge",
          "enhancement_level": 49,
          "grade": "None",
          "level": 41,
          "relative_level": "Even"
        },
        {
          "enhancement_id": "Crafted_Recharge",
          "enhancement_level": 49,
          "grade": "None",
          "level": 42,
          "relative_level": "Even"
        },
        {
          "enhancement_id": "Crafted_Recharge",
          "enhancement_level": 49,
          "grade": "None",
          "level": 42,
          "relative_level": "Even"
        }
      ],
      "sub_powers": []
    },
    "Level18": {
      "level": 18,
      "power_id": "Controller_Control.Mind_Control.Mass_Hypnosis",
      "tag": false,
      "stat_include": false,
      "variable_value": 0,
      "slots": [
        {
          "enhancement_id": "Crafted_Accuracy",
          "enhancement_level": 49,
          "grade": "None",
          "level": 17,
          "relative_level": "Even"
        },
        {
          "enhancement_id": "Crafted_Sleep",
          "enhancement_level": 49,
          "grade": "None",
          "level": 42,
          "relative_level": "Even"
        },
        {
          "enhancement_id": "Crafted_Sleep",
          "enhancement_level": 49,
          "grade": "None",
          "level": 44,
          "relative_level": "Even"
        },
        {
          "enhancement_id": "Crafted_Sleep",
          "enhancement_level": 49,
          "grade": "None",
          "level": 44,
          "relative_level": "Even"
        },
        {
          "enhancement_id": "Crafted_Endurance_Discount",
          "enhancement_level": 49,
          "grade": "None",
          "level": 44,
          "relative_level": "Even"
        },
        {
          "enhancement_id": "Crafted_Endurance_Discount",
          "enhancement_level": 49,
          "grade": "None",
          "level": 45,
          "relative_level": "Even"
        }
      ],
      "sub_powers": []
    },
    "Level20": {
      "level": 20,
      "power_id": "Controller_Control.Mind_Control.Telekinesis",
      "tag": false,
      "stat_include": false,
      "variable_value": 0,
      "slots": [
        {
          "enhancement_id": "Crafted_Endurance_Discount",
          "enhancement_level": 49,
          "grade": "None",
          "level": 19,
          "relative_level": "Even"
        },
        {
          "enhancement_id": "Crafted_Endurance_Discount",
          "enhancement_level": 49,
          "grade": "None",
          "level": 45,
          "relative_level": "Even"
        },
        {
          "enhancement_id": "Crafted_Endurance_Discount",
          "enhancement_level": 49,
          "grade": "None",
          "level": 45,
          "relative_level": "Even"
        },
        {
          "enhancement_id": "Crafted_Recharge",
          "enhancement_level": 49,
          "grade": "None",
          "level": 47,
          "relative_level": "Even"
        },
        {
          "enhancement_id": "Crafted_Recharge",
          "enhancement_level": 49,
          "grade": "None",
          "level": 47,
          "relative_level": "Even"
        }
      ],
      "sub_powers": []
    },
    "Level22": {
      "level": 22,
      "power_id": "Controller_Buff.Force_Field.Dispersion_Bubble",
      "tag": false,
      "stat_include": false,
      "variable_value": 0,
      "slots": [
        {
          "enhancement_id": "Crafted_Defense_Buff",
          "enhancement_level": 49,
          "grade": "None",
          "level": 21,
          "relative_level": "Even"
        },
        {
          "enhancement_id": "Crafted_Defense_Buff",
          "enhancement_level": 49,
          "grade": "None",
          "level": 47,
          "relative_level": "Even"
        },
        {
          "enhancement_id": "Crafted_Defense_Buff",
          "enhancement_level": 49,
          "grade": "None",
          "level": 49,
          "relative_level": "Even"
        },
        {
          "enhancement_id": "Crafted_Endurance_Discount",
          "enhancement_level": 49,
          "grade": "None",
          "level": 49,
          "relative_level": "Even"
        },
        {
          "enhancement_id": "Crafted_Endurance_Discount",
          "enhancement_level": 49,
          "grade": "None",
          "level": 49,
          "relative_level": "Even"
        }
      ],
      "sub_powers": []
    },
    "Level24": {
      "level": 24,
      "power_id": "Controller_Control.Mind_Control.Total_Domination",
      "tag": false,
      "stat_include": false,
      "variable_value": 0,
      "slots": [
        {
          "enhancement_id": "Crafted_Accuracy",
          "enhancement_level": 49,
          "grade": "None",
          "level": 23,
          "relative_level": "Even"
        }
      ],
      "sub_powers": []
    },
    "Level26": {
      "level": 26,
      "power_id": "Controller_Control.Mind_Control.Terrify",
      "tag": false,
      "stat_include": false,
      "variable_value": 0,
      "slots": [
        {
          "enhancement_id": "Crafted_Accuracy",
          "enhancement_level": 49,
          "grade": "None",
          "level": 25,
          "relative_level": "Even"
        }
      ],
      "sub_powers": []
    },
    "Level28": {
      "level": 28,
      "power_id": "Pool.Fighting.Boxing",
      "tag": false,
      "stat_include": false,
      "variable_value": 0,
      "slots": [
        {
          "enhancement_id": "Crafted_Accuracy",
          "enhancement_level": 49,
          "grade": "None",
          "level": 27,
          "relative_level": "Even"
        }
      ],
      "sub_powers": []
    },
    "Level30": {
      "level": 30,
      "power_id": "Pool.Fighting.Tough",
      "tag": false,
      "stat_include": true,
      "variable_value": 0,
      "slots": [
        {
          "enhancement_id": "Crafted_Res_Damage",
          "enhancement_level": 49,
          "grade": "None",
          "level": 29,
          "relative_level": "Even"
        }
      ],
      "sub_powers": []
    },
    "Level32": {
      "level": 32,
      "power_id": "Pool.Fighting.Weave",
      "tag": false,
      "stat_include": true,
      "variable_value": 0,
      "slots": [
        {
          "enhancement_id": "Crafted_Defense_Buff",
          "enhancement_level": 49,
          "grade": "None",
          "level": 31,
          "relative_level": "Even"
        }
      ],
      "sub_powers": []
    },
    "Level35": {
      "level": 35,
      "power_id": "Controller_Control.Mind_Control.Mass_Confusion",
      "tag": false,
      "stat_include": false,
      "variable_value": 0,
      "slots": [
        {
          "enhancement_id": "Crafted_Accuracy",
          "enhancement_level": 49,
          "grade": "None",
          "level": 34,
          "relative_level": "Even"
        }
      ],
      "sub_powers": []
    },
    "Level38": {
      "level": 38,
      "power_id": "Controller_Buff.Force_Field.Force_Bubble",
      "tag": false,
      "stat_include": false,
      "variable_value": 0,
      "slots": [
        {
          "enhancement_id": "Crafted_Recharge",
          "enhancement_level": 49,
          "grade": "None",
          "level": 37,
          "relative_level": "Even"
        }
      ],
      "sub_powers": []
    },
    "Level41": {
      "level": 41,
      "power_id": "Controller_Buff.Force_Field.Repulsion_Bomb",
      "tag": false,
      "stat_include": false,
      "variable_value": 0,
      "slots": [
        {
          "enhancement_id": "Crafted_Accuracy",
          "enhancement_level": 49,
          "grade": "None",
          "level": 40,
          "relative_level": "Even"
        }
      ],
      "sub_powers": []
    },
    "Level44": {
      "level": 44,
      "power_id": "Controller_Buff.Force_Field.Force_Bolt",
      "tag": false,
      "stat_include": false,
      "variable_value": 0,
      "slots": [
        {
          "enhancement_id": "Crafted_Accuracy",
          "enhancement_level": 49,
          "grade": "None",
          "level": 43,
          "relative_level": "Even"
        }
      ],
      "sub_powers": []
    },
    "Level47": {
      "level": 47,
      "power_id": "Controller_Buff.Force_Field.Repulsion_Field",
      "tag": false,
      "stat_include": false,
      "variable_value": 0,
      "slots": [
        {
          "enhancement_id": "Crafted_Recharge",
          "enhancement_level": 49,
          "grade": "None",
          "level": 46,
          "relative_level": "Even"
        }
      ],
      "sub_powers": []
    },
    "Level49": {
      "level": 49,
      "power_id": "Controller_Buff.Force_Field.Refraction_Shield",
      "tag": false,
      "stat_include": false,
      "variable_value": 0,
      "slots": [
        {
          "enhancement_id": "Crafted_Accuracy",
          "enhancement_level": 49,
          "grade": "None",
          "level": 48,
          "relative_level": "Even"
        }
      ],
      "sub_powers": []
    }
  }
}